[
    [
        {
            "class": "product",
            "cons": "Coordy1",
            "params": [
                [
                    "Double",
                    null
                ],
                [
                    "Double",
                    null
                ]
            ],
            "type": "Coord1"
        },
        {
            "class": "record",
            "cons": "Coordy2",
            "fields": [
                [
                    "a",
                    "Double",
                    null
                ],
                [
                    "b",
                    "Double",
                    null
                ]
            ],
            "type": "Coord2"
        },
        {
            "class": "sum",
            "data": [
                [
                    "Wales",
                    [
                        [
                            "String",
                            null
                        ]
                    ]
                ],
                [
                    "England",
                    [
                        [
                            "Int",
                            null
                        ],
                        [
                            "Int",
                            null
                        ]
                    ]
                ],
                [
                    "Scotland",
                    null
                ]
            ],
            "type": "Union"
        },
        {
            "class": "record",
            "cons": "C",
            "fields": [
                [
                    "foo",
                    "Int",
                    null
                ]
            ],
            "newtype": "t",
            "type": "Coord"
        },
        {
            "class": "product",
            "cons": "T",
            "params": [
                [
                    "a",
                    [
                        "a"
                    ]
                ],
                [
                    "b",
                    [
                        "b"
                    ]
                ],
                [
                    "Double",
                    null
                ]
            ],
            "tparams": [
                "a",
                "b"
            ],
            "type": "Things"
        },
        {
            "class": "record",
            "cons": "Logger",
            "fields": [
                [
                    "log",
                    "String -> m ()",
                    [
                        "m"
                    ]
                ]
            ],
            "tparams": [
                "m"
            ],
            "type": "Logger"
        },
        {
            "class": "sum",
            "data": [
                [
                    "Admin",
                    [
                        [
                            "[a]",
                            [
                                "a"
                            ]
                        ],
                        [
                            "String",
                            null
                        ]
                    ]
                ],
                [
                    "User",
                    [
                        [
                            "a",
                            [
                                "a"
                            ]
                        ],
                        [
                            "String",
                            null
                        ]
                    ]
                ]
            ],
            "tparams": [
                "a"
            ],
            "type": "Action"
        },
        {
            "class": "product",
            "cons": "(:|)",
            "params": [
                [
                    "String",
                    null
                ],
                [
                    "String",
                    null
                ]
            ],
            "type": "InfixProd"
        },
        {
            "class": "sum",
            "data": [
                [
                    "(:||)",
                    [
                        [
                            "String",
                            null
                        ],
                        [
                            "String",
                            null
                        ]
                    ]
                ],
                [
                    "(:|||)",
                    [
                        [
                            "String",
                            null
                        ],
                        [
                            "String",
                            null
                        ]
                    ]
                ]
            ],
            "type": "InfixSum"
        }
    ],
    [
        {
            "end": {
                "col": 32,
                "line": 1
            },
            "start": {
                "col": 1,
                "line": 1
            },
            "text": "{-# LANGUAGE KindSignatures #-}"
        },
        {
            "end": {
                "col": 11,
                "line": 6
            },
            "start": {
                "col": 1,
                "line": 6
            },
            "text": "-- product"
        },
        {
            "end": {
                "col": 10,
                "line": 9
            },
            "start": {
                "col": 1,
                "line": 9
            },
            "text": "-- record"
        },
        {
            "end": {
                "col": 7,
                "line": 12
            },
            "start": {
                "col": 1,
                "line": 12
            },
            "text": "-- sum"
        },
        {
            "end": {
                "col": 11,
                "line": 15
            },
            "start": {
                "col": 1,
                "line": 15
            },
            "text": "-- newtype"
        },
        {
            "end": {
                "col": 23,
                "line": 18
            },
            "start": {
                "col": 1,
                "line": 18
            },
            "text": "-- polymorphic product"
        },
        {
            "end": {
                "col": 36,
                "line": 21
            },
            "start": {
                "col": 1,
                "line": 21
            },
            "text": "-- higher kinded polymorphic record"
        },
        {
            "end": {
                "col": 19,
                "line": 24
            },
            "start": {
                "col": 1,
                "line": 24
            },
            "text": "-- polymorphic sum"
        },
        {
            "end": {
                "col": 17,
                "line": 27
            },
            "start": {
                "col": 1,
                "line": 27
            },
            "text": "-- infix product"
        },
        {
            "end": {
                "col": 13,
                "line": 30
            },
            "start": {
                "col": 1,
                "line": 30
            },
            "text": "-- infix sum"
        }
    ]
]
